EESchema Schematic File Version 4
EELAYER 30 0
EELAYER END
$Descr A4 11693 8268
encoding utf-8
Sheet 1 1
Title ""
Date ""
Rev ""
Comp ""
Comment1 ""
Comment2 ""
Comment3 ""
Comment4 ""
$EndDescr
$Comp
L Sensor_Current:HTFS200-P U1
U 1 1 608A0932
P 3400 4325
F 0 "U1" H 3370 4371 50  0000 R CNN
F 1 "HTFS200-P" H 3370 4280 50  0000 R CNN
F 2 "Sensor_Current:LEM_HTFS" H 3400 4325 50  0001 C CNN
F 3 "https://www.lem.com/sites/default/files/products_datasheets/htfs_200_800-p.pdf" H 3400 4325 50  0001 C CNN
	1    3400 4325
	1    0    0    -1  
$EndComp
$Comp
L Sensor_Current:HTFS200-P U2
U 1 1 608A0ED7
P 4650 4350
F 0 "U2" H 4620 4396 50  0000 R CNN
F 1 "HTFS200-P" H 4620 4305 50  0000 R CNN
F 2 "Sensor_Current:LEM_HTFS" H 4650 4350 50  0001 C CNN
F 3 "https://www.lem.com/sites/default/files/products_datasheets/htfs_200_800-p.pdf" H 4650 4350 50  0001 C CNN
	1    4650 4350
	1    0    0    -1  
$EndComp
$Comp
L Sensor_Current:HTFS200-P U3
U 1 1 608A1657
P 5875 4375
F 0 "U3" H 5845 4421 50  0000 R CNN
F 1 "HTFS200-P" H 5845 4330 50  0000 R CNN
F 2 "Sensor_Current:LEM_HTFS" H 5875 4375 50  0001 C CNN
F 3 "https://www.lem.com/sites/default/files/products_datasheets/htfs_200_800-p.pdf" H 5875 4375 50  0001 C CNN
	1    5875 4375
	1    0    0    -1  
$EndComp
$Comp
L power:GND #PWR0101
U 1 1 608A46A8
P 7475 4425
F 0 "#PWR0101" H 7475 4175 50  0001 C CNN
F 1 "GND" V 7475 4225 50  0000 C CNN
F 2 "" H 7475 4425 50  0001 C CNN
F 3 "" H 7475 4425 50  0001 C CNN
	1    7475 4425
	0    1    1    0   
$EndComp
$Comp
L power:GND #PWR0102
U 1 1 608A4AE5
P 6075 4775
F 0 "#PWR0102" H 6075 4525 50  0001 C CNN
F 1 "GND" H 6080 4602 50  0000 C CNN
F 2 "" H 6075 4775 50  0001 C CNN
F 3 "" H 6075 4775 50  0001 C CNN
	1    6075 4775
	1    0    0    -1  
$EndComp
$Comp
L power:GND #PWR0103
U 1 1 608A4F5D
P 4850 4750
F 0 "#PWR0103" H 4850 4500 50  0001 C CNN
F 1 "GND" H 4855 4577 50  0000 C CNN
F 2 "" H 4850 4750 50  0001 C CNN
F 3 "" H 4850 4750 50  0001 C CNN
	1    4850 4750
	1    0    0    -1  
$EndComp
$Comp
L power:GND #PWR0104
U 1 1 608A542B
P 3600 4725
F 0 "#PWR0104" H 3600 4475 50  0001 C CNN
F 1 "GND" H 3605 4552 50  0000 C CNN
F 2 "" H 3600 4725 50  0001 C CNN
F 3 "" H 3600 4725 50  0001 C CNN
	1    3600 4725
	1    0    0    -1  
$EndComp
$Comp
L power:VCC #PWR0105
U 1 1 608A5CFD
P 7475 4125
F 0 "#PWR0105" H 7475 3975 50  0001 C CNN
F 1 "VCC" V 7490 4252 50  0000 L CNN
F 2 "" H 7475 4125 50  0001 C CNN
F 3 "" H 7475 4125 50  0001 C CNN
	1    7475 4125
	0    -1   -1   0   
$EndComp
$Comp
L power:VCC #PWR0106
U 1 1 608A645C
P 5975 3975
F 0 "#PWR0106" H 5975 3825 50  0001 C CNN
F 1 "VCC" H 5990 4148 50  0000 C CNN
F 2 "" H 5975 3975 50  0001 C CNN
F 3 "" H 5975 3975 50  0001 C CNN
	1    5975 3975
	1    0    0    -1  
$EndComp
$Comp
L power:VCC #PWR0107
U 1 1 608A6936
P 4750 3950
F 0 "#PWR0107" H 4750 3800 50  0001 C CNN
F 1 "VCC" H 4765 4123 50  0000 C CNN
F 2 "" H 4750 3950 50  0001 C CNN
F 3 "" H 4750 3950 50  0001 C CNN
	1    4750 3950
	1    0    0    -1  
$EndComp
$Comp
L power:VCC #PWR0108
U 1 1 608A6FD4
P 3500 3925
F 0 "#PWR0108" H 3500 3775 50  0001 C CNN
F 1 "VCC" H 3515 4098 50  0000 C CNN
F 2 "" H 3500 3925 50  0001 C CNN
F 3 "" H 3500 3925 50  0001 C CNN
	1    3500 3925
	1    0    0    -1  
$EndComp
$Comp
L Device:C C1
U 1 1 608A9E63
P 3350 3225
F 0 "C1" H 3465 3271 50  0000 L CNN
F 1 "47n" H 3465 3180 50  0000 L CNN
F 2 "Capacitor_SMD:C_0805_2012Metric" H 3388 3075 50  0001 C CNN
F 3 "~" H 3350 3225 50  0001 C CNN
F 4 "C53134" H 3350 3225 50  0001 C CNN "lcsc"
F 5 "C53134" H 3350 3225 50  0001 C CNN "LCSC"
	1    3350 3225
	1    0    0    -1  
$EndComp
$Comp
L power:GND #PWR0109
U 1 1 608AA402
P 3350 3375
F 0 "#PWR0109" H 3350 3125 50  0001 C CNN
F 1 "GND" H 3355 3202 50  0000 C CNN
F 2 "" H 3350 3375 50  0001 C CNN
F 3 "" H 3350 3375 50  0001 C CNN
	1    3350 3375
	1    0    0    -1  
$EndComp
$Comp
L power:VCC #PWR0110
U 1 1 608AAA5F
P 3350 3075
F 0 "#PWR0110" H 3350 2925 50  0001 C CNN
F 1 "VCC" V 3365 3202 50  0000 L CNN
F 2 "" H 3350 3075 50  0001 C CNN
F 3 "" H 3350 3075 50  0001 C CNN
	1    3350 3075
	1    0    0    -1  
$EndComp
$Comp
L Device:C C4
U 1 1 608AD681
P 4825 1925
F 0 "C4" H 4940 1971 50  0000 L CNN
F 1 "47n" H 4940 1880 50  0000 L CNN
F 2 "Capacitor_SMD:C_0805_2012Metric" H 4863 1775 50  0001 C CNN
F 3 "~" H 4825 1925 50  0001 C CNN
F 4 "C53134" H 4825 1925 50  0001 C CNN "lcsc"
F 5 "C53134" H 4825 1925 50  0001 C CNN "LCSC"
	1    4825 1925
	1    0    0    -1  
$EndComp
$Comp
L power:GND #PWR0115
U 1 1 608AD687
P 4825 2075
F 0 "#PWR0115" H 4825 1825 50  0001 C CNN
F 1 "GND" H 4830 1902 50  0000 C CNN
F 2 "" H 4825 2075 50  0001 C CNN
F 3 "" H 4825 2075 50  0001 C CNN
	1    4825 2075
	1    0    0    -1  
$EndComp
$Comp
L power:VCC #PWR0116
U 1 1 608AD68D
P 4825 1775
F 0 "#PWR0116" H 4825 1625 50  0001 C CNN
F 1 "VCC" V 4840 1902 50  0000 L CNN
F 2 "" H 4825 1775 50  0001 C CNN
F 3 "" H 4825 1775 50  0001 C CNN
	1    4825 1775
	1    0    0    -1  
$EndComp
$Comp
L Device:C C5
U 1 1 608ADAD4
P 5125 1925
F 0 "C5" H 5240 1971 50  0000 L CNN
F 1 "47n" H 5240 1880 50  0000 L CNN
F 2 "Capacitor_SMD:C_0805_2012Metric" H 5163 1775 50  0001 C CNN
F 3 "~" H 5125 1925 50  0001 C CNN
F 4 "C53134" H 5125 1925 50  0001 C CNN "lcsc"
F 5 "C53134" H 5125 1925 50  0001 C CNN "LCSC"
	1    5125 1925
	1    0    0    -1  
$EndComp
$Comp
L power:GND #PWR0117
U 1 1 608ADADA
P 5125 2075
F 0 "#PWR0117" H 5125 1825 50  0001 C CNN
F 1 "GND" H 5130 1902 50  0000 C CNN
F 2 "" H 5125 2075 50  0001 C CNN
F 3 "" H 5125 2075 50  0001 C CNN
	1    5125 2075
	1    0    0    -1  
$EndComp
$Comp
L power:VCC #PWR0118
U 1 1 608ADAE0
P 5125 1775
F 0 "#PWR0118" H 5125 1625 50  0001 C CNN
F 1 "VCC" V 5140 1902 50  0000 L CNN
F 2 "" H 5125 1775 50  0001 C CNN
F 3 "" H 5125 1775 50  0001 C CNN
	1    5125 1775
	1    0    0    -1  
$EndComp
$Comp
L Device:R R1
U 1 1 608B9FFE
P 8925 3925
F 0 "R1" V 8718 3925 50  0000 C CNN
F 1 "1kR" V 8809 3925 50  0000 C CNN
F 2 "Resistor_SMD:R_0805_2012Metric" V 8855 3925 50  0001 C CNN
F 3 "~" H 8925 3925 50  0001 C CNN
F 4 "C17513 " H 8925 3925 50  0001 C CNN "lcsc"
F 5 "C17513 " H 8925 3925 50  0001 C CNN "LCSC"
	1    8925 3925
	0    1    1    0   
$EndComp
$Comp
L power:VCC #PWR0119
U 1 1 608BB568
P 9075 3925
F 0 "#PWR0119" H 9075 3775 50  0001 C CNN
F 1 "VCC" V 9090 4052 50  0000 L CNN
F 2 "" H 9075 3925 50  0001 C CNN
F 3 "" H 9075 3925 50  0001 C CNN
	1    9075 3925
	1    0    0    -1  
$EndComp
$Comp
L power:GND #PWR0120
U 1 1 608BC91D
P 8275 4025
F 0 "#PWR0120" H 8275 3775 50  0001 C CNN
F 1 "GND" H 8280 3852 50  0000 C CNN
F 2 "" H 8275 4025 50  0001 C CNN
F 3 "" H 8275 4025 50  0001 C CNN
	1    8275 4025
	1    0    0    -1  
$EndComp
$Comp
L Connector:RJ45_LED_Shielded J1
U 1 1 608B4DE1
P 7875 4225
F 0 "J1" H 7875 3658 50  0000 C CNN
F 1 "RJ45_LED" H 7875 3749 50  0000 C CNN
F 2 "Connector_RJ:RJ45_Amphenol_RJHSE538X" V 7875 4250 50  0001 C CNN
F 3 "~" V 7875 4250 50  0001 C CNN
F 4 "C386757" H 7875 4225 50  0001 C CNN "lcsc"
F 5 "C386757" H 7875 4225 50  0001 C CNN "LCSC"
	1    7875 4225
	-1   0    0    1   
$EndComp
$Comp
L Device:C C3
U 1 1 608DA14A
P 4150 3225
F 0 "C3" H 4265 3271 50  0000 L CNN
F 1 "4.7n" H 4265 3180 50  0000 L CNN
F 2 "Capacitor_SMD:C_0805_2012Metric" H 4188 3075 50  0001 C CNN
F 3 "~" H 4150 3225 50  0001 C CNN
F 4 "C1744" H 4150 3225 50  0001 C CNN "lcsc"
F 5 "C1744" H 4150 3225 50  0001 C CNN "LCSC"
	1    4150 3225
	1    0    0    -1  
$EndComp
$Comp
L power:GND #PWR0111
U 1 1 608DA150
P 4150 3375
F 0 "#PWR0111" H 4150 3125 50  0001 C CNN
F 1 "GND" H 4155 3202 50  0000 C CNN
F 2 "" H 4150 3375 50  0001 C CNN
F 3 "" H 4150 3375 50  0001 C CNN
	1    4150 3375
	1    0    0    -1  
$EndComp
Text Label 3900 4425 0    50   ~ 0
OUT1
Text Label 3600 3925 0    50   ~ 0
REF1
Text Label 4850 3950 0    50   ~ 0
REF2
Text Label 6075 3975 0    50   ~ 0
REF3
Text Label 5150 4450 0    50   ~ 0
OUT2
Text Label 6375 4475 0    50   ~ 0
OUT3
$Comp
L Device:C C2
U 1 1 608DC507
P 3775 3225
F 0 "C2" H 3890 3271 50  0000 L CNN
F 1 "47n" H 3890 3180 50  0000 L CNN
F 2 "Capacitor_SMD:C_0805_2012Metric" H 3813 3075 50  0001 C CNN
F 3 "~" H 3775 3225 50  0001 C CNN
F 4 "C53134" H 3775 3225 50  0001 C CNN "lcsc"
F 5 "C53134" H 3775 3225 50  0001 C CNN "LCSC"
	1    3775 3225
	1    0    0    -1  
$EndComp
$Comp
L power:GND #PWR0112
U 1 1 608DC50D
P 3775 3375
F 0 "#PWR0112" H 3775 3125 50  0001 C CNN
F 1 "GND" H 3780 3202 50  0000 C CNN
F 2 "" H 3775 3375 50  0001 C CNN
F 3 "" H 3775 3375 50  0001 C CNN
	1    3775 3375
	1    0    0    -1  
$EndComp
Text Label 3775 3075 0    50   ~ 0
REF1
Text Label 4150 3075 0    50   ~ 0
OUT1
$Comp
L Device:C C6
U 1 1 608DF76C
P 4875 3250
F 0 "C6" H 4990 3296 50  0000 L CNN
F 1 "47n" H 4990 3205 50  0000 L CNN
F 2 "Capacitor_SMD:C_0805_2012Metric" H 4913 3100 50  0001 C CNN
F 3 "~" H 4875 3250 50  0001 C CNN
F 4 "C53134" H 4875 3250 50  0001 C CNN "lcsc"
F 5 "C53134" H 4875 3250 50  0001 C CNN "LCSC"
	1    4875 3250
	1    0    0    -1  
$EndComp
$Comp
L power:GND #PWR0113
U 1 1 608DF772
P 4875 3400
F 0 "#PWR0113" H 4875 3150 50  0001 C CNN
F 1 "GND" H 4880 3227 50  0000 C CNN
F 2 "" H 4875 3400 50  0001 C CNN
F 3 "" H 4875 3400 50  0001 C CNN
	1    4875 3400
	1    0    0    -1  
$EndComp
$Comp
L power:VCC #PWR0114
U 1 1 608DF778
P 4875 3100
F 0 "#PWR0114" H 4875 2950 50  0001 C CNN
F 1 "VCC" V 4890 3227 50  0000 L CNN
F 2 "" H 4875 3100 50  0001 C CNN
F 3 "" H 4875 3100 50  0001 C CNN
	1    4875 3100
	1    0    0    -1  
$EndComp
$Comp
L Device:C C8
U 1 1 608DF77E
P 5675 3250
F 0 "C8" H 5790 3296 50  0000 L CNN
F 1 "4.7n" H 5790 3205 50  0000 L CNN
F 2 "Capacitor_SMD:C_0805_2012Metric" H 5713 3100 50  0001 C CNN
F 3 "~" H 5675 3250 50  0001 C CNN
F 4 "C1744" H 5675 3250 50  0001 C CNN "lcsc"
F 5 "C1744" H 5675 3250 50  0001 C CNN "LCSC"
	1    5675 3250
	1    0    0    -1  
$EndComp
$Comp
L power:GND #PWR0122
U 1 1 608DF784
P 5675 3400
F 0 "#PWR0122" H 5675 3150 50  0001 C CNN
F 1 "GND" H 5680 3227 50  0000 C CNN
F 2 "" H 5675 3400 50  0001 C CNN
F 3 "" H 5675 3400 50  0001 C CNN
	1    5675 3400
	1    0    0    -1  
$EndComp
$Comp
L Device:C C7
U 1 1 608DF78A
P 5300 3250
F 0 "C7" H 5415 3296 50  0000 L CNN
F 1 "47n" H 5415 3205 50  0000 L CNN
F 2 "Capacitor_SMD:C_0805_2012Metric" H 5338 3100 50  0001 C CNN
F 3 "~" H 5300 3250 50  0001 C CNN
F 4 "C53134" H 5300 3250 50  0001 C CNN "lcsc"
F 5 "C53134" H 5300 3250 50  0001 C CNN "LCSC"
	1    5300 3250
	1    0    0    -1  
$EndComp
$Comp
L power:GND #PWR0123
U 1 1 608DF790
P 5300 3400
F 0 "#PWR0123" H 5300 3150 50  0001 C CNN
F 1 "GND" H 5305 3227 50  0000 C CNN
F 2 "" H 5300 3400 50  0001 C CNN
F 3 "" H 5300 3400 50  0001 C CNN
	1    5300 3400
	1    0    0    -1  
$EndComp
Text Label 5300 3100 0    50   ~ 0
REF2
Text Label 5675 3100 0    50   ~ 0
OUT2
$Comp
L Device:C C9
U 1 1 608E0D29
P 6250 3225
F 0 "C9" H 6365 3271 50  0000 L CNN
F 1 "47n" H 6365 3180 50  0000 L CNN
F 2 "Capacitor_SMD:C_0805_2012Metric" H 6288 3075 50  0001 C CNN
F 3 "~" H 6250 3225 50  0001 C CNN
F 4 "C53134" H 6250 3225 50  0001 C CNN "lcsc"
F 5 "C53134" H 6250 3225 50  0001 C CNN "LCSC"
	1    6250 3225
	1    0    0    -1  
$EndComp
$Comp
L power:GND #PWR0124
U 1 1 608E0D2F
P 6250 3375
F 0 "#PWR0124" H 6250 3125 50  0001 C CNN
F 1 "GND" H 6255 3202 50  0000 C CNN
F 2 "" H 6250 3375 50  0001 C CNN
F 3 "" H 6250 3375 50  0001 C CNN
	1    6250 3375
	1    0    0    -1  
$EndComp
$Comp
L power:VCC #PWR0125
U 1 1 608E0D35
P 6250 3075
F 0 "#PWR0125" H 6250 2925 50  0001 C CNN
F 1 "VCC" V 6265 3202 50  0000 L CNN
F 2 "" H 6250 3075 50  0001 C CNN
F 3 "" H 6250 3075 50  0001 C CNN
	1    6250 3075
	1    0    0    -1  
$EndComp
$Comp
L Device:C C11
U 1 1 608E0D3B
P 7050 3225
F 0 "C11" H 7165 3271 50  0000 L CNN
F 1 "4.7n" H 7165 3180 50  0000 L CNN
F 2 "Capacitor_SMD:C_0805_2012Metric" H 7088 3075 50  0001 C CNN
F 3 "~" H 7050 3225 50  0001 C CNN
F 4 "C1744" H 7050 3225 50  0001 C CNN "lcsc"
F 5 "C1744" H 7050 3225 50  0001 C CNN "LCSC"
	1    7050 3225
	1    0    0    -1  
$EndComp
$Comp
L power:GND #PWR0126
U 1 1 608E0D41
P 7050 3375
F 0 "#PWR0126" H 7050 3125 50  0001 C CNN
F 1 "GND" H 7055 3202 50  0000 C CNN
F 2 "" H 7050 3375 50  0001 C CNN
F 3 "" H 7050 3375 50  0001 C CNN
	1    7050 3375
	1    0    0    -1  
$EndComp
$Comp
L Device:C C10
U 1 1 608E0D47
P 6675 3225
F 0 "C10" H 6790 3271 50  0000 L CNN
F 1 "47n" H 6790 3180 50  0000 L CNN
F 2 "Capacitor_SMD:C_0805_2012Metric" H 6713 3075 50  0001 C CNN
F 3 "~" H 6675 3225 50  0001 C CNN
F 4 "C53134" H 6675 3225 50  0001 C CNN "lcsc"
F 5 "C53134" H 6675 3225 50  0001 C CNN "LCSC"
	1    6675 3225
	1    0    0    -1  
$EndComp
$Comp
L power:GND #PWR0127
U 1 1 608E0D4D
P 6675 3375
F 0 "#PWR0127" H 6675 3125 50  0001 C CNN
F 1 "GND" H 6680 3202 50  0000 C CNN
F 2 "" H 6675 3375 50  0001 C CNN
F 3 "" H 6675 3375 50  0001 C CNN
	1    6675 3375
	1    0    0    -1  
$EndComp
Text Label 6675 3075 0    50   ~ 0
REF3
Text Label 7050 3075 0    50   ~ 0
OUT3
Text Label 7475 3925 2    50   ~ 0
REF1
Text Label 7475 4025 2    50   ~ 0
OUT1
Text Label 7475 4225 2    50   ~ 0
REF2
Text Label 7475 4325 2    50   ~ 0
OUT2
Text Label 7475 4525 2    50   ~ 0
REF3
Text Label 7475 4625 2    50   ~ 0
OUT3
$Comp
L Mechanical:MountingHole H3
U 1 1 608A2B95
P 9475 5850
F 0 "H3" H 9575 5896 50  0000 L CNN
F 1 "MountingHole" H 9575 5805 50  0000 L CNN
F 2 "MountingHole:MountingHole_3.2mm_M3_DIN965" H 9475 5850 50  0001 C CNN
F 3 "~" H 9475 5850 50  0001 C CNN
	1    9475 5850
	1    0    0    -1  
$EndComp
$Comp
L Mechanical:MountingHole H2
U 1 1 608A298D
P 8600 5850
F 0 "H2" H 8700 5896 50  0000 L CNN
F 1 "MountingHole" H 8700 5805 50  0000 L CNN
F 2 "MountingHole:MountingHole_3.2mm_M3_DIN965" H 8600 5850 50  0001 C CNN
F 3 "~" H 8600 5850 50  0001 C CNN
	1    8600 5850
	1    0    0    -1  
$EndComp
$Comp
L Mechanical:MountingHole H1
U 1 1 6089F073
P 7775 5825
F 0 "H1" H 7875 5871 50  0000 L CNN
F 1 "MountingHole" H 7875 5780 50  0000 L CNN
F 2 "MountingHole:MountingHole_3.2mm_M3_DIN965" H 7775 5825 50  0001 C CNN
F 3 "~" H 7775 5825 50  0001 C CNN
	1    7775 5825
	1    0    0    -1  
$EndComp
$Comp
L Connector:TestPoint TP1
U 1 1 608CCBAB
P 9400 2650
F 0 "TP1" V 9354 2838 50  0000 L CNN
F 1 "5v" V 9445 2838 50  0000 L CNN
F 2 "Connector_PinHeader_2.54mm:PinHeader_1x01_P2.54mm_Vertical" H 9600 2650 50  0001 C CNN
F 3 "~" H 9600 2650 50  0001 C CNN
	1    9400 2650
	0    1    1    0   
$EndComp
$Comp
L Connector:TestPoint TP2
U 1 1 608CD532
P 9400 2850
F 0 "TP2" V 9354 3038 50  0000 L CNN
F 1 "GND" V 9445 3038 50  0000 L CNN
F 2 "Connector_PinHeader_2.54mm:PinHeader_1x01_P2.54mm_Vertical" H 9600 2850 50  0001 C CNN
F 3 "~" H 9600 2850 50  0001 C CNN
	1    9400 2850
	0    1    1    0   
$EndComp
$Comp
L power:VCC #PWR01
U 1 1 608CE1DD
P 9400 2650
F 0 "#PWR01" H 9400 2500 50  0001 C CNN
F 1 "VCC" V 9415 2777 50  0000 L CNN
F 2 "" H 9400 2650 50  0001 C CNN
F 3 "" H 9400 2650 50  0001 C CNN
	1    9400 2650
	0    -1   -1   0   
$EndComp
$Comp
L power:GND #PWR02
U 1 1 608CE7F8
P 9400 2850
F 0 "#PWR02" H 9400 2600 50  0001 C CNN
F 1 "GND" V 9400 2650 50  0000 C CNN
F 2 "" H 9400 2850 50  0001 C CNN
F 3 "" H 9400 2850 50  0001 C CNN
	1    9400 2850
	0    1    1    0   
$EndComp
$Comp
L Device:D D1
U 1 1 608D0529
P 4125 1600
F 0 "D1" V 4079 1680 50  0000 L CNN
F 1 "D" V 4170 1680 50  0000 L CNN
F 2 "Diode_SMD:D_SOD-123" H 4125 1600 50  0001 C CNN
F 3 "~" H 4125 1600 50  0001 C CNN
F 4 "C8598" H 4125 1600 50  0001 C CNN "lcsc"
F 5 "C8598" H 4125 1600 50  0001 C CNN "LCSC"
	1    4125 1600
	0    1    1    0   
$EndComp
$Comp
L power:VCC #PWR05
U 1 1 608D1345
P 4400 1450
F 0 "#PWR05" H 4400 1300 50  0001 C CNN
F 1 "VCC" V 4415 1577 50  0000 L CNN
F 2 "" H 4400 1450 50  0001 C CNN
F 3 "" H 4400 1450 50  0001 C CNN
	1    4400 1450
	1    0    0    -1  
$EndComp
$Comp
L power:VCC #PWR03
U 1 1 608D1761
P 4125 1450
F 0 "#PWR03" H 4125 1300 50  0001 C CNN
F 1 "VCC" V 4140 1577 50  0000 L CNN
F 2 "" H 4125 1450 50  0001 C CNN
F 3 "" H 4125 1450 50  0001 C CNN
	1    4125 1450
	1    0    0    -1  
$EndComp
$Comp
L power:GND #PWR06
U 1 1 608D1BB5
P 4400 1750
F 0 "#PWR06" H 4400 1500 50  0001 C CNN
F 1 "GND" V 4400 1550 50  0000 C CNN
F 2 "" H 4400 1750 50  0001 C CNN
F 3 "" H 4400 1750 50  0001 C CNN
	1    4400 1750
	1    0    0    -1  
$EndComp
$Comp
L power:GND #PWR04
U 1 1 608D202B
P 4125 1750
F 0 "#PWR04" H 4125 1500 50  0001 C CNN
F 1 "GND" V 4125 1550 50  0000 C CNN
F 2 "" H 4125 1750 50  0001 C CNN
F 3 "" H 4125 1750 50  0001 C CNN
	1    4125 1750
	1    0    0    -1  
$EndComp
$Comp
L Device:D D2
U 1 1 6088F2E7
P 4400 1600
F 0 "D2" V 4354 1680 50  0000 L CNN
F 1 "tvs" V 4445 1680 50  0000 L CNN
F 2 "Diode_SMD:D_SOD-123" H 4400 1600 50  0001 C CNN
F 3 "~" H 4400 1600 50  0001 C CNN
F 4 "C478011 " H 4400 1600 50  0001 C CNN "lcsc"
F 5 "C478011 " H 4400 1600 50  0001 C CNN "LCSC"
	1    4400 1600
	0    1    1    0   
$EndComp
$Comp
L Device:C C12
U 1 1 6089510A
P 4825 1100
F 0 "C12" H 4940 1146 50  0000 L CNN
F 1 "47n" H 4940 1055 50  0000 L CNN
F 2 "Capacitor_SMD:C_0805_2012Metric" H 4863 950 50  0001 C CNN
F 3 "~" H 4825 1100 50  0001 C CNN
F 4 "C53134" H 4825 1100 50  0001 C CNN "lcsc"
F 5 "C53134" H 4825 1100 50  0001 C CNN "LCSC"
	1    4825 1100
	1    0    0    -1  
$EndComp
$Comp
L power:GND #PWR0128
U 1 1 60895110
P 4825 1250
F 0 "#PWR0128" H 4825 1000 50  0001 C CNN
F 1 "GND" H 4830 1077 50  0000 C CNN
F 2 "" H 4825 1250 50  0001 C CNN
F 3 "" H 4825 1250 50  0001 C CNN
	1    4825 1250
	1    0    0    -1  
$EndComp
$Comp
L power:VCC #PWR0129
U 1 1 60895116
P 4825 950
F 0 "#PWR0129" H 4825 800 50  0001 C CNN
F 1 "VCC" V 4840 1077 50  0000 L CNN
F 2 "" H 4825 950 50  0001 C CNN
F 3 "" H 4825 950 50  0001 C CNN
	1    4825 950 
	1    0    0    -1  
$EndComp
$Comp
L Device:C C13
U 1 1 6089511C
P 5125 1100
F 0 "C13" H 5240 1146 50  0000 L CNN
F 1 "47n" H 5240 1055 50  0000 L CNN
F 2 "Capacitor_SMD:C_0805_2012Metric" H 5163 950 50  0001 C CNN
F 3 "~" H 5125 1100 50  0001 C CNN
F 4 "C53134" H 5125 1100 50  0001 C CNN "lcsc"
F 5 "C53134" H 5125 1100 50  0001 C CNN "LCSC"
	1    5125 1100
	1    0    0    -1  
$EndComp
$Comp
L power:GND #PWR0130
U 1 1 60895122
P 5125 1250
F 0 "#PWR0130" H 5125 1000 50  0001 C CNN
F 1 "GND" H 5130 1077 50  0000 C CNN
F 2 "" H 5125 1250 50  0001 C CNN
F 3 "" H 5125 1250 50  0001 C CNN
	1    5125 1250
	1    0    0    -1  
$EndComp
$Comp
L power:VCC #PWR0131
U 1 1 60895128
P 5125 950
F 0 "#PWR0131" H 5125 800 50  0001 C CNN
F 1 "VCC" V 5140 1077 50  0000 L CNN
F 2 "" H 5125 950 50  0001 C CNN
F 3 "" H 5125 950 50  0001 C CNN
	1    5125 950 
	1    0    0    -1  
$EndComp
$Comp
L power:GND #PWR0132
U 1 1 608A6AB6
P 7875 3725
F 0 "#PWR0132" H 7875 3475 50  0001 C CNN
F 1 "GND" H 7880 3552 50  0000 C CNN
F 2 "" H 7875 3725 50  0001 C CNN
F 3 "" H 7875 3725 50  0001 C CNN
	1    7875 3725
	-1   0    0    1   
$EndComp
Wire Wire Line
	8275 3925 8775 3925
NoConn ~ 8275 4525
NoConn ~ 8275 4625
$Comp
L Jumper:SolderJumper_2_Open JP1
U 1 1 6091CB6A
P 3600 5725
F 0 "JP1" H 3600 5930 50  0000 C CNN
F 1 "SolderJumper_2_Open" H 3600 5839 50  0000 C CNN
F 2 "Jumper:SolderJumper-2_P1.3mm_Open_RoundedPad1.0x1.5mm" H 3600 5725 50  0001 C CNN
F 3 "~" H 3600 5725 50  0001 C CNN
	1    3600 5725
	1    0    0    -1  
$EndComp
$Comp
L Device:R R2
U 1 1 6091EF66
P 3975 5500
F 0 "R2" H 4045 5546 50  0000 L CNN
F 1 "5kR" H 4045 5455 50  0000 L CNN
F 2 "Resistor_SMD:R_0805_2012Metric" V 3905 5500 50  0001 C CNN
F 3 "~" H 3975 5500 50  0001 C CNN
F 4 "C17513 " H 3975 5500 50  0001 C CNN "LCSC"
	1    3975 5500
	1    0    0    -1  
$EndComp
$Comp
L Device:R R3
U 1 1 6091F766
P 3975 6025
F 0 "R3" H 3905 5979 50  0000 R CNN
F 1 "5kR" H 3905 6070 50  0000 R CNN
F 2 "Resistor_SMD:R_0805_2012Metric" V 3905 6025 50  0001 C CNN
F 3 "~" H 3975 6025 50  0001 C CNN
F 4 "C17513 " H 3975 6025 50  0001 C CNN "LCSC"
	1    3975 6025
	-1   0    0    1   
$EndComp
Wire Wire Line
	3975 5725 3975 5650
Wire Wire Line
	3750 5725 3975 5725
Wire Wire Line
	3975 5725 3975 5875
Connection ~ 3975 5725
$Comp
L power:GND #PWR0121
U 1 1 60920D16
P 3975 6175
F 0 "#PWR0121" H 3975 5925 50  0001 C CNN
F 1 "GND" H 3980 6002 50  0000 C CNN
F 2 "" H 3975 6175 50  0001 C CNN
F 3 "" H 3975 6175 50  0001 C CNN
	1    3975 6175
	1    0    0    -1  
$EndComp
$Comp
L power:VCC #PWR0133
U 1 1 609211CA
P 3975 5350
F 0 "#PWR0133" H 3975 5200 50  0001 C CNN
F 1 "VCC" H 3990 5523 50  0000 C CNN
F 2 "" H 3975 5350 50  0001 C CNN
F 3 "" H 3975 5350 50  0001 C CNN
	1    3975 5350
	1    0    0    -1  
$EndComp
$Comp
L Jumper:SolderJumper_2_Open JP2
U 1 1 6092CB8C
P 4750 5725
F 0 "JP2" H 4750 5930 50  0000 C CNN
F 1 "SolderJumper_2_Open" H 4750 5839 50  0000 C CNN
F 2 "Jumper:SolderJumper-2_P1.3mm_Open_RoundedPad1.0x1.5mm" H 4750 5725 50  0001 C CNN
F 3 "~" H 4750 5725 50  0001 C CNN
	1    4750 5725
	1    0    0    -1  
$EndComp
$Comp
L Device:R R4
U 1 1 6092CB92
P 5125 5500
F 0 "R4" H 5195 5546 50  0000 L CNN
F 1 "5kR" H 5195 5455 50  0000 L CNN
F 2 "Resistor_SMD:R_0805_2012Metric" V 5055 5500 50  0001 C CNN
F 3 "~" H 5125 5500 50  0001 C CNN
F 4 "C17513 " H 5125 5500 50  0001 C CNN "LCSC"
	1    5125 5500
	1    0    0    -1  
$EndComp
$Comp
L Device:R R5
U 1 1 6092CB98
P 5125 6025
F 0 "R5" H 5055 5979 50  0000 R CNN
F 1 "5kR" H 5055 6070 50  0000 R CNN
F 2 "Resistor_SMD:R_0805_2012Metric" V 5055 6025 50  0001 C CNN
F 3 "~" H 5125 6025 50  0001 C CNN
F 4 "C17513 " H 5125 6025 50  0001 C CNN "LCSC"
	1    5125 6025
	-1   0    0    1   
$EndComp
Wire Wire Line
	5125 5725 5125 5650
Wire Wire Line
	4900 5725 5125 5725
Wire Wire Line
	5125 5725 5125 5875
Connection ~ 5125 5725
$Comp
L power:GND #PWR0134
U 1 1 6092CBA2
P 5125 6175
F 0 "#PWR0134" H 5125 5925 50  0001 C CNN
F 1 "GND" H 5130 6002 50  0000 C CNN
F 2 "" H 5125 6175 50  0001 C CNN
F 3 "" H 5125 6175 50  0001 C CNN
	1    5125 6175
	1    0    0    -1  
$EndComp
$Comp
L power:VCC #PWR0135
U 1 1 6092CBA8
P 5125 5350
F 0 "#PWR0135" H 5125 5200 50  0001 C CNN
F 1 "VCC" H 5140 5523 50  0000 C CNN
F 2 "" H 5125 5350 50  0001 C CNN
F 3 "" H 5125 5350 50  0001 C CNN
	1    5125 5350
	1    0    0    -1  
$EndComp
$Comp
L Jumper:SolderJumper_2_Open JP3
U 1 1 6092E0AD
P 5925 5725
F 0 "JP3" H 5925 5930 50  0000 C CNN
F 1 "SolderJumper_2_Open" H 5925 5839 50  0000 C CNN
F 2 "Jumper:SolderJumper-2_P1.3mm_Open_RoundedPad1.0x1.5mm" H 5925 5725 50  0001 C CNN
F 3 "~" H 5925 5725 50  0001 C CNN
	1    5925 5725
	1    0    0    -1  
$EndComp
$Comp
L Device:R R6
U 1 1 6092E0B3
P 6300 5500
F 0 "R6" H 6370 5546 50  0000 L CNN
F 1 "5kR" H 6370 5455 50  0000 L CNN
F 2 "Resistor_SMD:R_0805_2012Metric" V 6230 5500 50  0001 C CNN
F 3 "~" H 6300 5500 50  0001 C CNN
F 4 "C17513 " H 6300 5500 50  0001 C CNN "LCSC"
	1    6300 5500
	1    0    0    -1  
$EndComp
$Comp
L Device:R R7
U 1 1 6092E0B9
P 6300 6025
F 0 "R7" H 6230 5979 50  0000 R CNN
F 1 "5kR" H 6230 6070 50  0000 R CNN
F 2 "Resistor_SMD:R_0805_2012Metric" V 6230 6025 50  0001 C CNN
F 3 "~" H 6300 6025 50  0001 C CNN
F 4 "C17513 " H 6300 6025 50  0001 C CNN "LCSC"
	1    6300 6025
	-1   0    0    1   
$EndComp
Wire Wire Line
	6300 5725 6300 5650
Wire Wire Line
	6075 5725 6300 5725
Wire Wire Line
	6300 5725 6300 5875
Connection ~ 6300 5725
$Comp
L power:GND #PWR0136
U 1 1 6092E0C3
P 6300 6175
F 0 "#PWR0136" H 6300 5925 50  0001 C CNN
F 1 "GND" H 6305 6002 50  0000 C CNN
F 2 "" H 6300 6175 50  0001 C CNN
F 3 "" H 6300 6175 50  0001 C CNN
	1    6300 6175
	1    0    0    -1  
$EndComp
$Comp
L power:VCC #PWR0137
U 1 1 6092E0C9
P 6300 5350
F 0 "#PWR0137" H 6300 5200 50  0001 C CNN
F 1 "VCC" H 6315 5523 50  0000 C CNN
F 2 "" H 6300 5350 50  0001 C CNN
F 3 "" H 6300 5350 50  0001 C CNN
	1    6300 5350
	1    0    0    -1  
$EndComp
Text Label 3450 5725 2    50   ~ 0
REF1
Text Label 5775 5725 2    50   ~ 0
REF3
Text Label 4600 5725 2    50   ~ 0
REF2
$Comp
L Device:D D10
U 1 1 60971183
P 2725 1850
F 0 "D10" V 2679 1930 50  0000 L CNN
F 1 "D" V 2770 1930 50  0000 L CNN
F 2 "Diode_SMD:D_SOD-123" H 2725 1850 50  0001 C CNN
F 3 "~" H 2725 1850 50  0001 C CNN
F 4 "C8598" H 2725 1850 50  0001 C CNN "lcsc"
F 5 "C8598" H 2725 1850 50  0001 C CNN "LCSC"
	1    2725 1850
	0    1    1    0   
$EndComp
$Comp
L power:VCC #PWR0140
U 1 1 60971189
P 2725 1300
F 0 "#PWR0140" H 2725 1150 50  0001 C CNN
F 1 "VCC" V 2740 1427 50  0000 L CNN
F 2 "" H 2725 1300 50  0001 C CNN
F 3 "" H 2725 1300 50  0001 C CNN
	1    2725 1300
	1    0    0    -1  
$EndComp
$Comp
L power:GND #PWR0141
U 1 1 6097118F
P 2725 2000
F 0 "#PWR0141" H 2725 1750 50  0001 C CNN
F 1 "GND" V 2725 1800 50  0000 C CNN
F 2 "" H 2725 2000 50  0001 C CNN
F 3 "" H 2725 2000 50  0001 C CNN
	1    2725 2000
	1    0    0    -1  
$EndComp
$Comp
L Device:D D9
U 1 1 60971197
P 2725 1450
F 0 "D9" V 2679 1530 50  0000 L CNN
F 1 "D" V 2770 1530 50  0000 L CNN
F 2 "Diode_SMD:D_SOD-123" H 2725 1450 50  0001 C CNN
F 3 "~" H 2725 1450 50  0001 C CNN
F 4 "C8598" H 2725 1450 50  0001 C CNN "lcsc"
F 5 "C8598" H 2725 1450 50  0001 C CNN "LCSC"
	1    2725 1450
	0    1    1    0   
$EndComp
Wire Wire Line
	2725 1600 2725 1700
$Comp
L Device:D D12
U 1 1 6097521E
P 3100 1850
F 0 "D12" V 3054 1930 50  0000 L CNN
F 1 "D" V 3145 1930 50  0000 L CNN
F 2 "Diode_SMD:D_SOD-123" H 3100 1850 50  0001 C CNN
F 3 "~" H 3100 1850 50  0001 C CNN
F 4 "C8598" H 3100 1850 50  0001 C CNN "lcsc"
F 5 "C8598" H 3100 1850 50  0001 C CNN "LCSC"
	1    3100 1850
	0    1    1    0   
$EndComp
$Comp
L power:VCC #PWR0142
U 1 1 60975224
P 3100 1300
F 0 "#PWR0142" H 3100 1150 50  0001 C CNN
F 1 "VCC" V 3115 1427 50  0000 L CNN
F 2 "" H 3100 1300 50  0001 C CNN
F 3 "" H 3100 1300 50  0001 C CNN
	1    3100 1300
	1    0    0    -1  
$EndComp
$Comp
L power:GND #PWR0143
U 1 1 6097522A
P 3100 2000
F 0 "#PWR0143" H 3100 1750 50  0001 C CNN
F 1 "GND" V 3100 1800 50  0000 C CNN
F 2 "" H 3100 2000 50  0001 C CNN
F 3 "" H 3100 2000 50  0001 C CNN
	1    3100 2000
	1    0    0    -1  
$EndComp
$Comp
L Device:D D11
U 1 1 60975232
P 3100 1450
F 0 "D11" V 3054 1530 50  0000 L CNN
F 1 "D" V 3145 1530 50  0000 L CNN
F 2 "Diode_SMD:D_SOD-123" H 3100 1450 50  0001 C CNN
F 3 "~" H 3100 1450 50  0001 C CNN
F 4 "C8598" H 3100 1450 50  0001 C CNN "lcsc"
F 5 "C8598" H 3100 1450 50  0001 C CNN "LCSC"
	1    3100 1450
	0    1    1    0   
$EndComp
Wire Wire Line
	3100 1600 3100 1700
$Comp
L Device:D D14
U 1 1 6097523B
P 3475 1850
F 0 "D14" V 3429 1930 50  0000 L CNN
F 1 "D" V 3520 1930 50  0000 L CNN
F 2 "Diode_SMD:D_SOD-123" H 3475 1850 50  0001 C CNN
F 3 "~" H 3475 1850 50  0001 C CNN
F 4 "C8598" H 3475 1850 50  0001 C CNN "lcsc"
F 5 "C8598" H 3475 1850 50  0001 C CNN "LCSC"
	1    3475 1850
	0    1    1    0   
$EndComp
$Comp
L power:VCC #PWR0144
U 1 1 60975241
P 3475 1300
F 0 "#PWR0144" H 3475 1150 50  0001 C CNN
F 1 "VCC" V 3490 1427 50  0000 L CNN
F 2 "" H 3475 1300 50  0001 C CNN
F 3 "" H 3475 1300 50  0001 C CNN
	1    3475 1300
	1    0    0    -1  
$EndComp
$Comp
L power:GND #PWR0145
U 1 1 60975247
P 3475 2000
F 0 "#PWR0145" H 3475 1750 50  0001 C CNN
F 1 "GND" V 3475 1800 50  0000 C CNN
F 2 "" H 3475 2000 50  0001 C CNN
F 3 "" H 3475 2000 50  0001 C CNN
	1    3475 2000
	1    0    0    -1  
$EndComp
$Comp
L Device:D D13
U 1 1 6097524F
P 3475 1450
F 0 "D13" V 3429 1530 50  0000 L CNN
F 1 "D" V 3520 1530 50  0000 L CNN
F 2 "Diode_SMD:D_SOD-123" H 3475 1450 50  0001 C CNN
F 3 "~" H 3475 1450 50  0001 C CNN
F 4 "C8598" H 3475 1450 50  0001 C CNN "lcsc"
F 5 "C8598" H 3475 1450 50  0001 C CNN "LCSC"
	1    3475 1450
	0    1    1    0   
$EndComp
Wire Wire Line
	3475 1600 3475 1700
Text Label 2725 1675 0    50   ~ 0
OUT2
Text Label 3100 1675 0    50   ~ 0
REF3
Text Label 3475 1675 0    50   ~ 0
OUT3
$Comp
L Device:C C15
U 1 1 6096C56B
P 5475 1925
F 0 "C15" H 5590 1971 50  0000 L CNN
F 1 "47n" H 5590 1880 50  0000 L CNN
F 2 "Capacitor_SMD:C_0805_2012Metric" H 5513 1775 50  0001 C CNN
F 3 "~" H 5475 1925 50  0001 C CNN
F 4 "C53134" H 5475 1925 50  0001 C CNN "lcsc"
F 5 "C53134" H 5475 1925 50  0001 C CNN "LCSC"
	1    5475 1925
	1    0    0    -1  
$EndComp
$Comp
L power:GND #PWR0150
U 1 1 6096C571
P 5475 2075
F 0 "#PWR0150" H 5475 1825 50  0001 C CNN
F 1 "GND" H 5480 1902 50  0000 C CNN
F 2 "" H 5475 2075 50  0001 C CNN
F 3 "" H 5475 2075 50  0001 C CNN
	1    5475 2075
	1    0    0    -1  
$EndComp
$Comp
L power:VCC #PWR0151
U 1 1 6096C577
P 5475 1775
F 0 "#PWR0151" H 5475 1625 50  0001 C CNN
F 1 "VCC" V 5490 1902 50  0000 L CNN
F 2 "" H 5475 1775 50  0001 C CNN
F 3 "" H 5475 1775 50  0001 C CNN
	1    5475 1775
	1    0    0    -1  
$EndComp
$Comp
L Device:C C14
U 1 1 6096C57F
P 5475 1100
F 0 "C14" H 5590 1146 50  0000 L CNN
F 1 "47n" H 5590 1055 50  0000 L CNN
F 2 "Capacitor_SMD:C_0805_2012Metric" H 5513 950 50  0001 C CNN
F 3 "~" H 5475 1100 50  0001 C CNN
F 4 "C53134" H 5475 1100 50  0001 C CNN "lcsc"
F 5 "C53134" H 5475 1100 50  0001 C CNN "LCSC"
	1    5475 1100
	1    0    0    -1  
$EndComp
$Comp
L power:GND #PWR0152
U 1 1 6096C585
P 5475 1250
F 0 "#PWR0152" H 5475 1000 50  0001 C CNN
F 1 "GND" H 5480 1077 50  0000 C CNN
F 2 "" H 5475 1250 50  0001 C CNN
F 3 "" H 5475 1250 50  0001 C CNN
	1    5475 1250
	1    0    0    -1  
$EndComp
$Comp
L power:VCC #PWR0153
U 1 1 6096C58B
P 5475 950
F 0 "#PWR0153" H 5475 800 50  0001 C CNN
F 1 "VCC" V 5490 1077 50  0000 L CNN
F 2 "" H 5475 950 50  0001 C CNN
F 3 "" H 5475 950 50  0001 C CNN
	1    5475 950 
	1    0    0    -1  
$EndComp
$Comp
L Device:C C16
U 1 1 60987282
P 6400 1100
F 0 "C16" H 6515 1146 50  0000 L CNN
F 1 "22u" H 6515 1055 50  0000 L CNN
F 2 "Capacitor_SMD:C_0805_2012Metric" H 6438 950 50  0001 C CNN
F 3 "~" H 6400 1100 50  0001 C CNN
F 4 "C45783" H 6400 1100 50  0001 C CNN "lcsc"
F 5 "C45783" H 6400 1100 50  0001 C CNN "LCSC"
	1    6400 1100
	1    0    0    -1  
$EndComp
$Comp
L power:GND #PWR0154
U 1 1 60987288
P 6400 1250
F 0 "#PWR0154" H 6400 1000 50  0001 C CNN
F 1 "GND" H 6405 1077 50  0000 C CNN
F 2 "" H 6400 1250 50  0001 C CNN
F 3 "" H 6400 1250 50  0001 C CNN
	1    6400 1250
	1    0    0    -1  
$EndComp
$Comp
L power:VCC #PWR0155
U 1 1 6098728E
P 6400 950
F 0 "#PWR0155" H 6400 800 50  0001 C CNN
F 1 "VCC" V 6415 1077 50  0000 L CNN
F 2 "" H 6400 950 50  0001 C CNN
F 3 "" H 6400 950 50  0001 C CNN
	1    6400 950 
	1    0    0    -1  
$EndComp
$Comp
L Device:C C17
U 1 1 60988E40
P 6750 1100
F 0 "C17" H 6865 1146 50  0000 L CNN
F 1 "22u" H 6865 1055 50  0000 L CNN
F 2 "Capacitor_SMD:C_0805_2012Metric" H 6788 950 50  0001 C CNN
F 3 "~" H 6750 1100 50  0001 C CNN
F 4 "C45783" H 6750 1100 50  0001 C CNN "lcsc"
F 5 "C45783" H 6750 1100 50  0001 C CNN "LCSC"
	1    6750 1100
	1    0    0    -1  
$EndComp
$Comp
L power:GND #PWR0156
U 1 1 60988E46
P 6750 1250
F 0 "#PWR0156" H 6750 1000 50  0001 C CNN
F 1 "GND" H 6755 1077 50  0000 C CNN
F 2 "" H 6750 1250 50  0001 C CNN
F 3 "" H 6750 1250 50  0001 C CNN
	1    6750 1250
	1    0    0    -1  
$EndComp
$Comp
L power:VCC #PWR0157
U 1 1 60988E4C
P 6750 950
F 0 "#PWR0157" H 6750 800 50  0001 C CNN
F 1 "VCC" V 6765 1077 50  0000 L CNN
F 2 "" H 6750 950 50  0001 C CNN
F 3 "" H 6750 950 50  0001 C CNN
	1    6750 950 
	1    0    0    -1  
$EndComp
$Comp
L Device:C C18
U 1 1 609896B5
P 7100 1100
F 0 "C18" H 7215 1146 50  0000 L CNN
F 1 "22u" H 7215 1055 50  0000 L CNN
F 2 "Capacitor_SMD:C_0805_2012Metric" H 7138 950 50  0001 C CNN
F 3 "~" H 7100 1100 50  0001 C CNN
F 4 "C45783" H 7100 1100 50  0001 C CNN "lcsc"
F 5 "C45783" H 7100 1100 50  0001 C CNN "LCSC"
	1    7100 1100
	1    0    0    -1  
$EndComp
$Comp
L power:GND #PWR0158
U 1 1 609896BB
P 7100 1250
F 0 "#PWR0158" H 7100 1000 50  0001 C CNN
F 1 "GND" H 7105 1077 50  0000 C CNN
F 2 "" H 7100 1250 50  0001 C CNN
F 3 "" H 7100 1250 50  0001 C CNN
	1    7100 1250
	1    0    0    -1  
$EndComp
$Comp
L power:VCC #PWR0159
U 1 1 609896C1
P 7100 950
F 0 "#PWR0159" H 7100 800 50  0001 C CNN
F 1 "VCC" V 7115 1077 50  0000 L CNN
F 2 "" H 7100 950 50  0001 C CNN
F 3 "" H 7100 950 50  0001 C CNN
	1    7100 950 
	1    0    0    -1  
$EndComp
$Comp
L Device:C C19
U 1 1 60989C7E
P 7450 1100
F 0 "C19" H 7565 1146 50  0000 L CNN
F 1 "22u" H 7565 1055 50  0000 L CNN
F 2 "Capacitor_SMD:C_0805_2012Metric" H 7488 950 50  0001 C CNN
F 3 "~" H 7450 1100 50  0001 C CNN
F 4 "C45783" H 7450 1100 50  0001 C CNN "lcsc"
F 5 "C45783" H 7450 1100 50  0001 C CNN "LCSC"
	1    7450 1100
	1    0    0    -1  
$EndComp
$Comp
L power:GND #PWR0160
U 1 1 60989C84
P 7450 1250
F 0 "#PWR0160" H 7450 1000 50  0001 C CNN
F 1 "GND" H 7455 1077 50  0000 C CNN
F 2 "" H 7450 1250 50  0001 C CNN
F 3 "" H 7450 1250 50  0001 C CNN
	1    7450 1250
	1    0    0    -1  
$EndComp
$Comp
L power:VCC #PWR0161
U 1 1 60989C8A
P 7450 950
F 0 "#PWR0161" H 7450 800 50  0001 C CNN
F 1 "VCC" V 7465 1077 50  0000 L CNN
F 2 "" H 7450 950 50  0001 C CNN
F 3 "" H 7450 950 50  0001 C CNN
	1    7450 950 
	1    0    0    -1  
$EndComp
Text Label 2350 1675 0    50   ~ 0
REF2
Text Label 1925 1675 0    50   ~ 0
OUT1
Text Label 1550 1675 0    50   ~ 0
REF1
Wire Wire Line
	1925 1600 1925 1700
$Comp
L Device:D D5
U 1 1 6097A051
P 1925 1450
F 0 "D5" V 1879 1530 50  0000 L CNN
F 1 "D" V 1970 1530 50  0000 L CNN
F 2 "Diode_SMD:D_SOD-123" H 1925 1450 50  0001 C CNN
F 3 "~" H 1925 1450 50  0001 C CNN
F 4 "C8598" H 1925 1450 50  0001 C CNN "lcsc"
F 5 "C8598" H 1925 1450 50  0001 C CNN "LCSC"
	1    1925 1450
	0    1    1    0   
$EndComp
$Comp
L power:GND #PWR0149
U 1 1 6097A049
P 1925 2000
F 0 "#PWR0149" H 1925 1750 50  0001 C CNN
F 1 "GND" V 1925 1800 50  0000 C CNN
F 2 "" H 1925 2000 50  0001 C CNN
F 3 "" H 1925 2000 50  0001 C CNN
	1    1925 2000
	1    0    0    -1  
$EndComp
$Comp
L power:VCC #PWR0148
U 1 1 6097A043
P 1925 1300
F 0 "#PWR0148" H 1925 1150 50  0001 C CNN
F 1 "VCC" V 1940 1427 50  0000 L CNN
F 2 "" H 1925 1300 50  0001 C CNN
F 3 "" H 1925 1300 50  0001 C CNN
	1    1925 1300
	1    0    0    -1  
$EndComp
$Comp
L Device:D D6
U 1 1 6097A03D
P 1925 1850
F 0 "D6" V 1879 1930 50  0000 L CNN
F 1 "D" V 1970 1930 50  0000 L CNN
F 2 "Diode_SMD:D_SOD-123" H 1925 1850 50  0001 C CNN
F 3 "~" H 1925 1850 50  0001 C CNN
F 4 "C8598" H 1925 1850 50  0001 C CNN "lcsc"
F 5 "C8598" H 1925 1850 50  0001 C CNN "LCSC"
	1    1925 1850
	0    1    1    0   
$EndComp
Wire Wire Line
	1550 1600 1550 1700
$Comp
L Device:D D3
U 1 1 6097A034
P 1550 1450
F 0 "D3" V 1504 1530 50  0000 L CNN
F 1 "D" V 1595 1530 50  0000 L CNN
F 2 "Diode_SMD:D_SOD-123" H 1550 1450 50  0001 C CNN
F 3 "~" H 1550 1450 50  0001 C CNN
F 4 "C8598" H 1550 1450 50  0001 C CNN "lcsc"
F 5 "C8598" H 1550 1450 50  0001 C CNN "LCSC"
	1    1550 1450
	0    1    1    0   
$EndComp
$Comp
L power:GND #PWR0147
U 1 1 6097A02C
P 1550 2000
F 0 "#PWR0147" H 1550 1750 50  0001 C CNN
F 1 "GND" V 1550 1800 50  0000 C CNN
F 2 "" H 1550 2000 50  0001 C CNN
F 3 "" H 1550 2000 50  0001 C CNN
	1    1550 2000
	1    0    0    -1  
$EndComp
$Comp
L power:VCC #PWR0146
U 1 1 6097A026
P 1550 1300
F 0 "#PWR0146" H 1550 1150 50  0001 C CNN
F 1 "VCC" V 1565 1427 50  0000 L CNN
F 2 "" H 1550 1300 50  0001 C CNN
F 3 "" H 1550 1300 50  0001 C CNN
	1    1550 1300
	1    0    0    -1  
$EndComp
$Comp
L Device:D D4
U 1 1 6097A020
P 1550 1850
F 0 "D4" V 1504 1930 50  0000 L CNN
F 1 "D" V 1595 1930 50  0000 L CNN
F 2 "Diode_SMD:D_SOD-123" H 1550 1850 50  0001 C CNN
F 3 "~" H 1550 1850 50  0001 C CNN
F 4 "C8598" H 1550 1850 50  0001 C CNN "lcsc"
F 5 "C8598" H 1550 1850 50  0001 C CNN "LCSC"
	1    1550 1850
	0    1    1    0   
$EndComp
Wire Wire Line
	2350 1600 2350 1700
$Comp
L Device:D D7
U 1 1 6096D9A1
P 2350 1450
F 0 "D7" V 2304 1530 50  0000 L CNN
F 1 "D" V 2395 1530 50  0000 L CNN
F 2 "Diode_SMD:D_SOD-123" H 2350 1450 50  0001 C CNN
F 3 "~" H 2350 1450 50  0001 C CNN
F 4 "C8598" H 2350 1450 50  0001 C CNN "lcsc"
F 5 "C8598" H 2350 1450 50  0001 C CNN "LCSC"
	1    2350 1450
	0    1    1    0   
$EndComp
$Comp
L power:GND #PWR0139
U 1 1 6096CB22
P 2350 2000
F 0 "#PWR0139" H 2350 1750 50  0001 C CNN
F 1 "GND" V 2350 1800 50  0000 C CNN
F 2 "" H 2350 2000 50  0001 C CNN
F 3 "" H 2350 2000 50  0001 C CNN
	1    2350 2000
	1    0    0    -1  
$EndComp
$Comp
L power:VCC #PWR0138
U 1 1 6096CB1C
P 2350 1300
F 0 "#PWR0138" H 2350 1150 50  0001 C CNN
F 1 "VCC" V 2365 1427 50  0000 L CNN
F 2 "" H 2350 1300 50  0001 C CNN
F 3 "" H 2350 1300 50  0001 C CNN
	1    2350 1300
	1    0    0    -1  
$EndComp
$Comp
L Device:D D8
U 1 1 6096CB16
P 2350 1850
F 0 "D8" V 2304 1930 50  0000 L CNN
F 1 "D" V 2395 1930 50  0000 L CNN
F 2 "Diode_SMD:D_SOD-123" H 2350 1850 50  0001 C CNN
F 3 "~" H 2350 1850 50  0001 C CNN
F 4 "C8598" H 2350 1850 50  0001 C CNN "lcsc"
F 5 "C8598" H 2350 1850 50  0001 C CNN "LCSC"
	1    2350 1850
	0    1    1    0   
$EndComp
$EndSCHEMATC
